L01 Introduction
…
avg_price_per_yr=legosets %>% 
  drop_na(USD_MSRP) %>%
  group_by(Year) %>%
  summarise(
   count=n(),
   sum=sum(USD_MSRP),
   mean_price_per_yr=mean(USD_MSRP)
  )

avg_price_per_yr

## # A tibble: 45 x 4
##     Year count   sum mean_price_per_yr
##    <int> <int> <dbl>             <dbl>
##  1  1971     5  30.5              6.09
##  2  1972     3  27.8              9.28
##  3  1973     3  42               14   
##  4  1974     3  28                9.33
##  5  1975     2  64.0             32.0 
##  6  1976     4  54.8             13.7 
##  7  1977     4  55.6             13.9 
##  8  1978     8  86.2             10.8 
##  9  1979     6 141.              23.6 
## 10  1980    28 550.              19.7 
## # ... with 35 more rows
…
# Mean pieces by year

avg_pieces_per_yr=legosets %>% 
  drop_na(Pieces) %>%
  group_by(Year, duplo) %>%
  summarise(
   num_sets=n(),
   sum=sum(Pieces),
   mean_ps_per_yr=mean(Pieces)
  )

avg_pieces_per_yr

## # A tibble: 76 x 5
## # Groups:   Year [45]
##     Year duplo num_sets   sum mean_ps_per_yr
##    <int> <dbl>    <int> <int>          <dbl>
##  1  1971     0       31  3096           99.9
##  2  1972     0        4  1696          424  
##  3  1973     0       38  4123          108. 
##  4  1974     0       23  2340          102. 
##  5  1975     0       17  2845          167. 
##  6  1975     1        6  1206          201  
##  7  1976     0        4   549          137. 
##  8  1977     0        3   483          161  
##  9  1977     1        1     4            4  
## 10  1978     0        8   576           72  
## # ... with 66 more rows
…
LEGO set themes

In the 1990s, LEGO began partnering with famous brands and franchises to boost its own sales. First, lets see how many different themes LEGO now offers:

legosets %>%
  distinct(Theme)

## # A tibble: 115 x 1
##    Theme           
##    <chr>           
##  1 Advanced Models 
##  2 Duplo           
##  3 Juniors         
##  4 Classic         
##  5 Architecture    
##  6 Minecraft       
##  7 Ideas           
##  8 Friends         
##  9 Legends of Chima
## 10 Star Wars       
## # ... with 105 more rows
…
